Steps: 150	Recognition Loss: 459.75369	Translation Loss: 29757.36328	PPL: 44.11887	Eval Metric: bleu	WER 100.00	(DEL: 100.00,	INS: 0.00,	SUB: 0.00)	BLEU-4 4.09	(BLEU-1: 16.01,	BLEU-2: 6.93,	BLEU-3: 4.99,	BLEU-4: 4.09)	CHRF 19.61	ROUGE 19.40	LR: 0.00100000	*
Steps: 300	Recognition Loss: 309.49423	Translation Loss: 25486.06836	PPL: 25.61883	Eval Metric: bleu	WER 99.52	(DEL: 99.44,	INS: 0.00,	SUB: 0.08)	BLEU-4 6.02	(BLEU-1: 26.09,	BLEU-2: 13.20,	BLEU-3: 8.22,	BLEU-4: 6.02)	CHRF 23.33	ROUGE 25.59	LR: 0.00100000	*
Steps: 450	Recognition Loss: 205.74780	Translation Loss: 22224.61914	PPL: 16.91633	Eval Metric: bleu	WER 95.86	(DEL: 95.60,	INS: 0.00,	SUB: 0.27)	BLEU-4 10.62	(BLEU-1: 31.38,	BLEU-2: 19.56,	BLEU-3: 13.72,	BLEU-4: 10.62)	CHRF 29.14	ROUGE 34.21	LR: 0.00100000	*
Steps: 600	Recognition Loss: 190.15660	Translation Loss: 20890.20312	PPL: 14.27433	Eval Metric: bleu	WER 83.37	(DEL: 82.15,	INS: 0.08,	SUB: 1.15)	BLEU-4 12.80	(BLEU-1: 37.20,	BLEU-2: 23.60,	BLEU-3: 16.73,	BLEU-4: 12.80)	CHRF 34.74	ROUGE 36.95	LR: 0.00100000	*
Steps: 750	Recognition Loss: 178.36079	Translation Loss: 20150.46680	PPL: 12.99189	Eval Metric: bleu	WER 67.09	(DEL: 64.77,	INS: 0.21,	SUB: 2.11)	BLEU-4 13.60	(BLEU-1: 36.71,	BLEU-2: 23.84,	BLEU-3: 17.27,	BLEU-4: 13.60)	CHRF 34.64	ROUGE 38.93	LR: 0.00100000	*
Steps: 900	Recognition Loss: 160.45908	Translation Loss: 19136.21875	PPL: 11.41871	Eval Metric: bleu	WER 54.76	(DEL: 50.41,	INS: 0.56,	SUB: 3.79)	BLEU-4 15.73	(BLEU-1: 38.86,	BLEU-2: 26.65,	BLEU-3: 19.82,	BLEU-4: 15.73)	CHRF 37.44	ROUGE 41.64	LR: 0.00100000	*
Steps: 1050	Recognition Loss: 159.85294	Translation Loss: 18989.34570	PPL: 11.20726	Eval Metric: bleu	WER 43.34	(DEL: 35.31,	INS: 1.25,	SUB: 6.78)	BLEU-4 15.97	(BLEU-1: 40.92,	BLEU-2: 27.53,	BLEU-3: 20.31,	BLEU-4: 15.97)	CHRF 38.25	ROUGE 41.99	LR: 0.00100000	*
Steps: 1200	Recognition Loss: 153.87694	Translation Loss: 18766.87109	PPL: 10.89441	Eval Metric: bleu	WER 42.57	(DEL: 34.37,	INS: 1.47,	SUB: 6.73)	BLEU-4 16.08	(BLEU-1: 40.70,	BLEU-2: 27.84,	BLEU-3: 20.51,	BLEU-4: 16.08)	CHRF 38.91	ROUGE 42.55	LR: 0.00100000	*
Steps: 1350	Recognition Loss: 147.02220	Translation Loss: 18454.50391	PPL: 10.46984	Eval Metric: bleu	WER 39.58	(DEL: 28.96,	INS: 1.92,	SUB: 8.70)	BLEU-4 17.31	(BLEU-1: 42.63,	BLEU-2: 29.14,	BLEU-3: 21.76,	BLEU-4: 17.31)	CHRF 40.12	ROUGE 42.64	LR: 0.00100000	*
Steps: 1500	Recognition Loss: 143.05450	Translation Loss: 18647.95508	PPL: 10.73079	Eval Metric: bleu	WER 41.15	(DEL: 31.65,	INS: 1.25,	SUB: 8.25)	BLEU-4 16.95	(BLEU-1: 42.97,	BLEU-2: 29.10,	BLEU-3: 21.43,	BLEU-4: 16.95)	CHRF 40.28	ROUGE 43.20	LR: 0.00100000	
Steps: 1650	Recognition Loss: 142.28375	Translation Loss: 18734.94727	PPL: 10.85024	Eval Metric: bleu	WER 39.18	(DEL: 31.17,	INS: 1.15,	SUB: 6.86)	BLEU-4 17.49	(BLEU-1: 42.29,	BLEU-2: 29.16,	BLEU-3: 21.98,	BLEU-4: 17.49)	CHRF 40.44	ROUGE 43.74	LR: 0.00100000	*
Steps: 1800	Recognition Loss: 142.56335	Translation Loss: 18645.22656	PPL: 10.72706	Eval Metric: bleu	WER 39.63	(DEL: 32.13,	INS: 1.20,	SUB: 6.30)	BLEU-4 18.31	(BLEU-1: 44.29,	BLEU-2: 30.70,	BLEU-3: 23.00,	BLEU-4: 18.31)	CHRF 41.75	ROUGE 44.14	LR: 0.00100000	*
Steps: 1950	Recognition Loss: 138.67857	Translation Loss: 19196.21094	PPL: 11.50622	Eval Metric: bleu	WER 34.05	(DEL: 22.10,	INS: 1.63,	SUB: 10.33)	BLEU-4 16.64	(BLEU-1: 41.35,	BLEU-2: 28.19,	BLEU-3: 21.04,	BLEU-4: 16.64)	CHRF 39.00	ROUGE 42.10	LR: 0.00100000	
Steps: 2100	Recognition Loss: 136.37611	Translation Loss: 19166.71289	PPL: 11.46311	Eval Metric: bleu	WER 35.58	(DEL: 25.81,	INS: 1.47,	SUB: 8.30)	BLEU-4 18.55	(BLEU-1: 42.08,	BLEU-2: 29.52,	BLEU-3: 22.76,	BLEU-4: 18.55)	CHRF 40.60	ROUGE 44.73	LR: 0.00100000	*
Steps: 2250	Recognition Loss: 136.34966	Translation Loss: 18811.78125	PPL: 10.95686	Eval Metric: bleu	WER 38.35	(DEL: 29.09,	INS: 1.25,	SUB: 8.01)	BLEU-4 18.60	(BLEU-1: 44.03,	BLEU-2: 30.63,	BLEU-3: 23.15,	BLEU-4: 18.60)	CHRF 42.10	ROUGE 44.57	LR: 0.00100000	*
Steps: 2400	Recognition Loss: 139.88919	Translation Loss: 19245.72461	PPL: 11.57895	Eval Metric: bleu	WER 34.43	(DEL: 23.38,	INS: 1.81,	SUB: 9.23)	BLEU-4 18.28	(BLEU-1: 43.85,	BLEU-2: 30.19,	BLEU-3: 22.83,	BLEU-4: 18.28)	CHRF 41.92	ROUGE 44.07	LR: 0.00100000	
Steps: 2550	Recognition Loss: 136.02667	Translation Loss: 19561.48438	PPL: 12.05370	Eval Metric: bleu	WER 33.07	(DEL: 21.75,	INS: 1.87,	SUB: 9.45)	BLEU-4 18.63	(BLEU-1: 45.15,	BLEU-2: 31.38,	BLEU-3: 23.54,	BLEU-4: 18.63)	CHRF 42.31	ROUGE 44.63	LR: 0.00100000	*
Steps: 2700	Recognition Loss: 134.75121	Translation Loss: 19463.51562	PPL: 11.90436	Eval Metric: bleu	WER 36.19	(DEL: 26.63,	INS: 1.39,	SUB: 8.17)	BLEU-4 18.37	(BLEU-1: 43.73,	BLEU-2: 30.31,	BLEU-3: 22.92,	BLEU-4: 18.37)	CHRF 42.13	ROUGE 43.72	LR: 0.00100000	
Steps: 2850	Recognition Loss: 132.26266	Translation Loss: 19779.70898	PPL: 12.39314	Eval Metric: bleu	WER 35.23	(DEL: 25.75,	INS: 1.52,	SUB: 7.95)	BLEU-4 18.18	(BLEU-1: 43.38,	BLEU-2: 29.94,	BLEU-3: 22.68,	BLEU-4: 18.18)	CHRF 41.76	ROUGE 44.02	LR: 0.00100000	
Steps: 3000	Recognition Loss: 137.74702	Translation Loss: 20251.40234	PPL: 13.15984	Eval Metric: bleu	WER 33.79	(DEL: 22.04,	INS: 2.03,	SUB: 9.71)	BLEU-4 17.91	(BLEU-1: 42.88,	BLEU-2: 29.74,	BLEU-3: 22.40,	BLEU-4: 17.91)	CHRF 41.23	ROUGE 43.58	LR: 0.00100000	
Steps: 3150	Recognition Loss: 133.37080	Translation Loss: 20405.40820	PPL: 13.42030	Eval Metric: bleu	WER 34.16	(DEL: 23.11,	INS: 1.81,	SUB: 9.23)	BLEU-4 17.80	(BLEU-1: 43.12,	BLEU-2: 29.75,	BLEU-3: 22.32,	BLEU-4: 17.80)	CHRF 41.17	ROUGE 43.87	LR: 0.00100000	
Steps: 3300	Recognition Loss: 135.54111	Translation Loss: 20370.18555	PPL: 13.36028	Eval Metric: bleu	WER 34.16	(DEL: 24.26,	INS: 1.20,	SUB: 8.70)	BLEU-4 18.84	(BLEU-1: 44.30,	BLEU-2: 30.71,	BLEU-3: 23.30,	BLEU-4: 18.84)	CHRF 42.43	ROUGE 44.60	LR: 0.00100000	*
Steps: 3450	Recognition Loss: 136.90056	Translation Loss: 20870.98242	PPL: 14.23946	Eval Metric: bleu	WER 33.20	(DEL: 21.06,	INS: 1.95,	SUB: 10.19)	BLEU-4 16.96	(BLEU-1: 41.37,	BLEU-2: 28.43,	BLEU-3: 21.25,	BLEU-4: 16.96)	CHRF 40.83	ROUGE 43.00	LR: 0.00100000	
Steps: 3600	Recognition Loss: 138.72493	Translation Loss: 20950.37695	PPL: 14.38406	Eval Metric: bleu	WER 34.80	(DEL: 23.30,	INS: 1.73,	SUB: 9.77)	BLEU-4 18.41	(BLEU-1: 44.51,	BLEU-2: 30.47,	BLEU-3: 22.96,	BLEU-4: 18.41)	CHRF 42.16	ROUGE 44.43	LR: 0.00100000	
Steps: 3750	Recognition Loss: 132.96191	Translation Loss: 20952.01562	PPL: 14.38706	Eval Metric: bleu	WER 32.37	(DEL: 19.22,	INS: 2.72,	SUB: 10.44)	BLEU-4 18.61	(BLEU-1: 44.80,	BLEU-2: 31.34,	BLEU-3: 23.59,	BLEU-4: 18.61)	CHRF 43.01	ROUGE 44.83	LR: 0.00100000	
Steps: 3900	Recognition Loss: 134.75067	Translation Loss: 21458.60742	PPL: 15.34512	Eval Metric: bleu	WER 33.25	(DEL: 21.32,	INS: 1.84,	SUB: 10.09)	BLEU-4 18.08	(BLEU-1: 43.64,	BLEU-2: 29.97,	BLEU-3: 22.56,	BLEU-4: 18.08)	CHRF 43.06	ROUGE 44.26	LR: 0.00100000	
Steps: 4050	Recognition Loss: 135.89087	Translation Loss: 21746.96094	PPL: 15.91868	Eval Metric: bleu	WER 33.73	(DEL: 24.13,	INS: 1.47,	SUB: 8.14)	BLEU-4 18.62	(BLEU-1: 44.26,	BLEU-2: 30.91,	BLEU-3: 23.35,	BLEU-4: 18.62)	CHRF 42.06	ROUGE 44.23	LR: 0.00100000	
Steps: 4200	Recognition Loss: 146.77077	Translation Loss: 21899.45508	PPL: 16.23062	Eval Metric: bleu	WER 29.04	(DEL: 13.82,	INS: 3.34,	SUB: 11.88)	BLEU-4 17.92	(BLEU-1: 43.60,	BLEU-2: 29.94,	BLEU-3: 22.47,	BLEU-4: 17.92)	CHRF 42.14	ROUGE 43.19	LR: 0.00100000	
Steps: 4350	Recognition Loss: 137.51259	Translation Loss: 22094.73242	PPL: 16.63901	Eval Metric: bleu	WER 31.92	(DEL: 18.73,	INS: 2.35,	SUB: 10.84)	BLEU-4 17.96	(BLEU-1: 43.28,	BLEU-2: 29.92,	BLEU-3: 22.57,	BLEU-4: 17.96)	CHRF 41.63	ROUGE 43.82	LR: 0.00100000	
Steps: 4500	Recognition Loss: 137.20610	Translation Loss: 22467.06055	PPL: 17.44638	Eval Metric: bleu	WER 33.25	(DEL: 22.15,	INS: 1.44,	SUB: 9.66)	BLEU-4 17.79	(BLEU-1: 43.97,	BLEU-2: 30.04,	BLEU-3: 22.39,	BLEU-4: 17.79)	CHRF 42.29	ROUGE 43.95	LR: 0.00100000	
Steps: 4650	Recognition Loss: 132.48962	Translation Loss: 22559.76562	PPL: 17.65342	Eval Metric: bleu	WER 32.72	(DEL: 21.11,	INS: 1.95,	SUB: 9.66)	BLEU-4 18.85	(BLEU-1: 43.24,	BLEU-2: 30.46,	BLEU-3: 23.25,	BLEU-4: 18.85)	CHRF 42.07	ROUGE 43.98	LR: 0.00100000	*
Steps: 4800	Recognition Loss: 136.12782	Translation Loss: 22625.94141	PPL: 17.80272	Eval Metric: bleu	WER 32.27	(DEL: 20.52,	INS: 2.16,	SUB: 9.58)	BLEU-4 17.99	(BLEU-1: 43.95,	BLEU-2: 30.11,	BLEU-3: 22.50,	BLEU-4: 17.99)	CHRF 41.95	ROUGE 43.72	LR: 0.00100000	
Steps: 4950	Recognition Loss: 141.22771	Translation Loss: 22861.04102	PPL: 18.34340	Eval Metric: bleu	WER 30.53	(DEL: 15.88,	INS: 3.04,	SUB: 11.61)	BLEU-4 18.62	(BLEU-1: 44.76,	BLEU-2: 30.97,	BLEU-3: 23.27,	BLEU-4: 18.62)	CHRF 42.64	ROUGE 44.66	LR: 0.00100000	
Steps: 5100	Recognition Loss: 137.67041	Translation Loss: 23138.03516	PPL: 19.00153	Eval Metric: bleu	WER 31.20	(DEL: 17.40,	INS: 2.83,	SUB: 10.97)	BLEU-4 18.21	(BLEU-1: 43.36,	BLEU-2: 29.94,	BLEU-3: 22.66,	BLEU-4: 18.21)	CHRF 41.71	ROUGE 43.30	LR: 0.00100000	
Steps: 5250	Recognition Loss: 137.04088	Translation Loss: 23456.80078	PPL: 19.78819	Eval Metric: bleu	WER 32.35	(DEL: 21.11,	INS: 1.57,	SUB: 9.66)	BLEU-4 17.41	(BLEU-1: 43.50,	BLEU-2: 29.62,	BLEU-3: 22.00,	BLEU-4: 17.41)	CHRF 41.68	ROUGE 43.08	LR: 0.00100000	
Steps: 5400	Recognition Loss: 141.72583	Translation Loss: 23586.47070	PPL: 20.11744	Eval Metric: bleu	WER 29.68	(DEL: 15.75,	INS: 2.51,	SUB: 11.42)	BLEU-4 17.85	(BLEU-1: 43.87,	BLEU-2: 30.21,	BLEU-3: 22.53,	BLEU-4: 17.85)	CHRF 42.80	ROUGE 43.90	LR: 0.00100000	
Steps: 5550	Recognition Loss: 140.11792	Translation Loss: 23648.88281	PPL: 20.27785	Eval Metric: bleu	WER 32.45	(DEL: 20.36,	INS: 1.71,	SUB: 10.38)	BLEU-4 17.58	(BLEU-1: 43.13,	BLEU-2: 29.54,	BLEU-3: 22.06,	BLEU-4: 17.58)	CHRF 41.06	ROUGE 42.94	LR: 0.00100000	
Steps: 5700	Recognition Loss: 142.83589	Translation Loss: 24242.59570	PPL: 21.86932	Eval Metric: bleu	WER 29.36	(DEL: 15.27,	INS: 2.59,	SUB: 11.50)	BLEU-4 17.84	(BLEU-1: 42.87,	BLEU-2: 29.47,	BLEU-3: 22.20,	BLEU-4: 17.84)	CHRF 41.34	ROUGE 43.31	LR: 0.00100000	
Steps: 5850	Recognition Loss: 139.02455	Translation Loss: 23942.61914	PPL: 21.05020	Eval Metric: bleu	WER 30.74	(DEL: 16.63,	INS: 2.96,	SUB: 11.16)	BLEU-4 18.27	(BLEU-1: 43.98,	BLEU-2: 30.54,	BLEU-3: 22.93,	BLEU-4: 18.27)	CHRF 42.57	ROUGE 43.80	LR: 0.00100000	
Steps: 6000	Recognition Loss: 144.45718	Translation Loss: 24625.97461	PPL: 22.96274	Eval Metric: bleu	WER 30.45	(DEL: 16.63,	INS: 2.59,	SUB: 11.24)	BLEU-4 17.29	(BLEU-1: 43.62,	BLEU-2: 29.76,	BLEU-3: 21.98,	BLEU-4: 17.29)	CHRF 42.23	ROUGE 43.61	LR: 0.00070000	
Steps: 6150	Recognition Loss: 132.86589	Translation Loss: 24194.20508	PPL: 21.73506	Eval Metric: bleu	WER 28.34	(DEL: 14.49,	INS: 2.62,	SUB: 11.24)	BLEU-4 18.51	(BLEU-1: 44.44,	BLEU-2: 30.89,	BLEU-3: 23.20,	BLEU-4: 18.51)	CHRF 42.23	ROUGE 44.34	LR: 0.00070000	
Steps: 6300	Recognition Loss: 135.55626	Translation Loss: 24598.14648	PPL: 22.88157	Eval Metric: bleu	WER 29.33	(DEL: 16.09,	INS: 2.16,	SUB: 11.08)	BLEU-4 19.10	(BLEU-1: 45.40,	BLEU-2: 31.59,	BLEU-3: 23.84,	BLEU-4: 19.10)	CHRF 43.24	ROUGE 44.76	LR: 0.00070000	*
Steps: 6450	Recognition Loss: 135.78374	Translation Loss: 25016.68164	PPL: 24.13333	Eval Metric: bleu	WER 29.70	(DEL: 16.39,	INS: 2.19,	SUB: 11.13)	BLEU-4 18.37	(BLEU-1: 44.06,	BLEU-2: 30.50,	BLEU-3: 22.93,	BLEU-4: 18.37)	CHRF 42.00	ROUGE 43.68	LR: 0.00070000	
Steps: 6600	Recognition Loss: 142.54073	Translation Loss: 25257.75586	PPL: 24.88519	Eval Metric: bleu	WER 30.37	(DEL: 16.87,	INS: 2.05,	SUB: 11.45)	BLEU-4 18.48	(BLEU-1: 43.90,	BLEU-2: 30.54,	BLEU-3: 23.06,	BLEU-4: 18.48)	CHRF 42.58	ROUGE 43.66	LR: 0.00070000	
Steps: 6750	Recognition Loss: 142.27682	Translation Loss: 25326.58984	PPL: 25.10413	Eval Metric: bleu	WER 29.94	(DEL: 16.47,	INS: 2.43,	SUB: 11.05)	BLEU-4 18.28	(BLEU-1: 43.24,	BLEU-2: 30.16,	BLEU-3: 22.81,	BLEU-4: 18.28)	CHRF 41.99	ROUGE 43.92	LR: 0.00070000	
Steps: 6900	Recognition Loss: 142.62288	Translation Loss: 25776.57617	PPL: 26.58368	Eval Metric: bleu	WER 28.32	(DEL: 13.66,	INS: 2.64,	SUB: 12.01)	BLEU-4 18.79	(BLEU-1: 45.29,	BLEU-2: 31.42,	BLEU-3: 23.54,	BLEU-4: 18.79)	CHRF 42.67	ROUGE 44.72	LR: 0.00070000	
Steps: 7050	Recognition Loss: 145.91722	Translation Loss: 26074.10938	PPL: 27.60953	Eval Metric: bleu	WER 30.48	(DEL: 15.91,	INS: 2.48,	SUB: 12.09)	BLEU-4 18.35	(BLEU-1: 44.29,	BLEU-2: 30.74,	BLEU-3: 23.00,	BLEU-4: 18.35)	CHRF 42.53	ROUGE 43.53	LR: 0.00070000	
Steps: 7200	Recognition Loss: 141.14407	Translation Loss: 25541.09180	PPL: 25.79884	Eval Metric: bleu	WER 29.70	(DEL: 15.67,	INS: 2.59,	SUB: 11.45)	BLEU-4 19.15	(BLEU-1: 44.50,	BLEU-2: 31.19,	BLEU-3: 23.76,	BLEU-4: 19.15)	CHRF 42.70	ROUGE 44.38	LR: 0.00070000	*
Steps: 7350	Recognition Loss: 140.92360	Translation Loss: 26164.71484	PPL: 27.92972	Eval Metric: bleu	WER 30.80	(DEL: 17.61,	INS: 2.40,	SUB: 10.78)	BLEU-4 18.87	(BLEU-1: 45.11,	BLEU-2: 31.40,	BLEU-3: 23.65,	BLEU-4: 18.87)	CHRF 42.80	ROUGE 44.79	LR: 0.00070000	
Steps: 7500	Recognition Loss: 141.79147	Translation Loss: 26216.02344	PPL: 28.11268	Eval Metric: bleu	WER 30.29	(DEL: 16.55,	INS: 2.19,	SUB: 11.56)	BLEU-4 18.97	(BLEU-1: 44.79,	BLEU-2: 31.32,	BLEU-3: 23.67,	BLEU-4: 18.97)	CHRF 42.81	ROUGE 44.23	LR: 0.00070000	
Steps: 7650	Recognition Loss: 149.65327	Translation Loss: 26392.18164	PPL: 28.75002	Eval Metric: bleu	WER 28.24	(DEL: 11.80,	INS: 3.55,	SUB: 12.89)	BLEU-4 18.80	(BLEU-1: 44.29,	BLEU-2: 31.09,	BLEU-3: 23.51,	BLEU-4: 18.80)	CHRF 43.69	ROUGE 44.97	LR: 0.00070000	
Steps: 7800	Recognition Loss: 142.52243	Translation Loss: 26471.25781	PPL: 29.04080	Eval Metric: bleu	WER 30.34	(DEL: 16.89,	INS: 2.30,	SUB: 11.16)	BLEU-4 17.74	(BLEU-1: 41.25,	BLEU-2: 28.78,	BLEU-3: 21.94,	BLEU-4: 17.74)	CHRF 40.60	ROUGE 43.17	LR: 0.00070000	
Steps: 7950	Recognition Loss: 145.52625	Translation Loss: 26662.50195	PPL: 29.75625	Eval Metric: bleu	WER 29.78	(DEL: 15.91,	INS: 2.54,	SUB: 11.34)	BLEU-4 17.51	(BLEU-1: 42.63,	BLEU-2: 29.28,	BLEU-3: 21.95,	BLEU-4: 17.51)	CHRF 41.58	ROUGE 42.98	LR: 0.00070000	
Steps: 8100	Recognition Loss: 146.14474	Translation Loss: 26454.16016	PPL: 28.97768	Eval Metric: bleu	WER 29.84	(DEL: 15.03,	INS: 2.83,	SUB: 11.98)	BLEU-4 18.82	(BLEU-1: 44.75,	BLEU-2: 31.10,	BLEU-3: 23.39,	BLEU-4: 18.82)	CHRF 42.86	ROUGE 44.12	LR: 0.00070000	
Steps: 8250	Recognition Loss: 145.77991	Translation Loss: 26711.62500	PPL: 29.94285	Eval Metric: bleu	WER 29.60	(DEL: 15.21,	INS: 2.59,	SUB: 11.80)	BLEU-4 18.71	(BLEU-1: 44.98,	BLEU-2: 31.22,	BLEU-3: 23.46,	BLEU-4: 18.71)	CHRF 42.47	ROUGE 44.13	LR: 0.00070000	
Steps: 8400	Recognition Loss: 147.81738	Translation Loss: 26989.15234	PPL: 31.01926	Eval Metric: bleu	WER 29.20	(DEL: 14.76,	INS: 2.48,	SUB: 11.96)	BLEU-4 17.46	(BLEU-1: 43.98,	BLEU-2: 29.77,	BLEU-3: 22.05,	BLEU-4: 17.46)	CHRF 41.56	ROUGE 43.59	LR: 0.00070000	
Steps: 8550	Recognition Loss: 146.07935	Translation Loss: 27199.01758	PPL: 31.85886	Eval Metric: bleu	WER 30.42	(DEL: 16.60,	INS: 2.59,	SUB: 11.24)	BLEU-4 18.66	(BLEU-1: 44.67,	BLEU-2: 31.03,	BLEU-3: 23.35,	BLEU-4: 18.66)	CHRF 42.34	ROUGE 43.69	LR: 0.00049000	
Steps: 8700	Recognition Loss: 147.05406	Translation Loss: 26479.69141	PPL: 29.07198	Eval Metric: bleu	WER 29.12	(DEL: 13.82,	INS: 3.04,	SUB: 12.25)	BLEU-4 19.14	(BLEU-1: 45.45,	BLEU-2: 31.86,	BLEU-3: 24.02,	BLEU-4: 19.14)	CHRF 43.15	ROUGE 45.00	LR: 0.00049000	
Steps: 8850	Recognition Loss: 144.69412	Translation Loss: 26585.37695	PPL: 29.46562	Eval Metric: bleu	WER 28.69	(DEL: 13.48,	INS: 3.28,	SUB: 11.93)	BLEU-4 18.84	(BLEU-1: 45.52,	BLEU-2: 31.49,	BLEU-3: 23.66,	BLEU-4: 18.84)	CHRF 43.04	ROUGE 45.07	LR: 0.00049000	
Steps: 9000	Recognition Loss: 145.78833	Translation Loss: 26907.86328	PPL: 30.70003	Eval Metric: bleu	WER 28.48	(DEL: 14.12,	INS: 2.80,	SUB: 11.56)	BLEU-4 19.34	(BLEU-1: 45.95,	BLEU-2: 32.17,	BLEU-3: 24.20,	BLEU-4: 19.34)	CHRF 43.01	ROUGE 45.42	LR: 0.00049000	*
Steps: 9150	Recognition Loss: 146.48183	Translation Loss: 27178.98633	PPL: 31.77774	Eval Metric: bleu	WER 28.93	(DEL: 14.04,	INS: 3.42,	SUB: 11.48)	BLEU-4 19.19	(BLEU-1: 45.92,	BLEU-2: 31.97,	BLEU-3: 24.04,	BLEU-4: 19.19)	CHRF 42.99	ROUGE 44.95	LR: 0.00049000	
Steps: 9300	Recognition Loss: 147.69824	Translation Loss: 27321.62109	PPL: 32.35983	Eval Metric: bleu	WER 28.32	(DEL: 13.16,	INS: 3.18,	SUB: 11.98)	BLEU-4 18.88	(BLEU-1: 44.07,	BLEU-2: 30.78,	BLEU-3: 23.42,	BLEU-4: 18.88)	CHRF 42.35	ROUGE 44.04	LR: 0.00049000	
Steps: 9450	Recognition Loss: 150.04047	Translation Loss: 27676.43555	PPL: 33.85447	Eval Metric: bleu	WER 27.89	(DEL: 13.21,	INS: 2.91,	SUB: 11.77)	BLEU-4 18.62	(BLEU-1: 43.99,	BLEU-2: 30.51,	BLEU-3: 23.14,	BLEU-4: 18.62)	CHRF 42.40	ROUGE 43.37	LR: 0.00049000	
Steps: 9600	Recognition Loss: 152.00392	Translation Loss: 27751.91016	PPL: 34.18121	Eval Metric: bleu	WER 28.24	(DEL: 13.48,	INS: 2.80,	SUB: 11.96)	BLEU-4 17.72	(BLEU-1: 43.36,	BLEU-2: 29.85,	BLEU-3: 22.31,	BLEU-4: 17.72)	CHRF 42.73	ROUGE 43.30	LR: 0.00049000	
Steps: 9750	Recognition Loss: 148.80255	Translation Loss: 27572.86133	PPL: 33.41117	Eval Metric: bleu	WER 28.77	(DEL: 13.61,	INS: 2.99,	SUB: 12.17)	BLEU-4 17.68	(BLEU-1: 43.44,	BLEU-2: 29.79,	BLEU-3: 22.27,	BLEU-4: 17.68)	CHRF 41.70	ROUGE 43.31	LR: 0.00049000	
Steps: 9900	Recognition Loss: 154.14128	Translation Loss: 27808.40234	PPL: 34.42783	Eval Metric: bleu	WER 28.48	(DEL: 12.68,	INS: 3.36,	SUB: 12.44)	BLEU-4 18.41	(BLEU-1: 45.12,	BLEU-2: 31.24,	BLEU-3: 23.31,	BLEU-4: 18.41)	CHRF 42.95	ROUGE 44.04	LR: 0.00049000	
Steps: 10050	Recognition Loss: 155.54749	Translation Loss: 27650.90039	PPL: 33.74464	Eval Metric: bleu	WER 28.96	(DEL: 16.07,	INS: 2.35,	SUB: 10.54)	BLEU-4 18.81	(BLEU-1: 44.70,	BLEU-2: 31.25,	BLEU-3: 23.57,	BLEU-4: 18.81)	CHRF 42.17	ROUGE 44.38	LR: 0.00049000	
Steps: 10200	Recognition Loss: 150.32832	Translation Loss: 27740.72852	PPL: 34.13260	Eval Metric: bleu	WER 28.37	(DEL: 14.36,	INS: 2.62,	SUB: 11.40)	BLEU-4 18.93	(BLEU-1: 44.66,	BLEU-2: 31.16,	BLEU-3: 23.56,	BLEU-4: 18.93)	CHRF 43.12	ROUGE 44.30	LR: 0.00049000	
Steps: 10350	Recognition Loss: 154.29559	Translation Loss: 27953.29688	PPL: 35.06853	Eval Metric: bleu	WER 29.36	(DEL: 14.12,	INS: 3.04,	SUB: 12.20)	BLEU-4 19.59	(BLEU-1: 45.30,	BLEU-2: 31.84,	BLEU-3: 24.28,	BLEU-4: 19.59)	CHRF 42.86	ROUGE 45.38	LR: 0.00049000	*
Steps: 10500	Recognition Loss: 153.85335	Translation Loss: 27911.23047	PPL: 34.88130	Eval Metric: bleu	WER 28.77	(DEL: 13.26,	INS: 3.07,	SUB: 12.44)	BLEU-4 18.94	(BLEU-1: 44.43,	BLEU-2: 30.95,	BLEU-3: 23.58,	BLEU-4: 18.94)	CHRF 42.06	ROUGE 44.05	LR: 0.00049000	
Steps: 10650	Recognition Loss: 153.48677	Translation Loss: 28061.34570	PPL: 35.55406	Eval Metric: bleu	WER 28.74	(DEL: 12.76,	INS: 3.23,	SUB: 12.76)	BLEU-4 18.41	(BLEU-1: 44.27,	BLEU-2: 30.76,	BLEU-3: 23.11,	BLEU-4: 18.41)	CHRF 42.20	ROUGE 43.83	LR: 0.00049000	
Steps: 10800	Recognition Loss: 152.00868	Translation Loss: 28046.37500	PPL: 35.48639	Eval Metric: bleu	WER 29.04	(DEL: 14.54,	INS: 2.75,	SUB: 11.74)	BLEU-4 18.49	(BLEU-1: 44.77,	BLEU-2: 31.06,	BLEU-3: 23.28,	BLEU-4: 18.49)	CHRF 42.83	ROUGE 44.01	LR: 0.00049000	
Steps: 10950	Recognition Loss: 156.28699	Translation Loss: 28027.46094	PPL: 35.40107	Eval Metric: bleu	WER 29.49	(DEL: 14.65,	INS: 3.07,	SUB: 11.77)	BLEU-4 19.31	(BLEU-1: 45.39,	BLEU-2: 31.72,	BLEU-3: 24.05,	BLEU-4: 19.31)	CHRF 43.51	ROUGE 44.86	LR: 0.00049000	
Steps: 11100	Recognition Loss: 155.31578	Translation Loss: 28009.08203	PPL: 35.31837	Eval Metric: bleu	WER 29.25	(DEL: 13.10,	INS: 3.76,	SUB: 12.38)	BLEU-4 19.13	(BLEU-1: 45.33,	BLEU-2: 31.51,	BLEU-3: 23.85,	BLEU-4: 19.13)	CHRF 43.29	ROUGE 44.53	LR: 0.00049000	
Steps: 11250	Recognition Loss: 157.71983	Translation Loss: 27919.91992	PPL: 34.91990	Eval Metric: bleu	WER 29.76	(DEL: 14.76,	INS: 3.15,	SUB: 11.85)	BLEU-4 18.74	(BLEU-1: 44.71,	BLEU-2: 31.03,	BLEU-3: 23.40,	BLEU-4: 18.74)	CHRF 42.73	ROUGE 44.55	LR: 0.00049000	
Steps: 11400	Recognition Loss: 161.49762	Translation Loss: 28470.77539	PPL: 37.45567	Eval Metric: bleu	WER 29.84	(DEL: 14.12,	INS: 3.47,	SUB: 12.25)	BLEU-4 18.96	(BLEU-1: 44.33,	BLEU-2: 31.16,	BLEU-3: 23.68,	BLEU-4: 18.96)	CHRF 42.98	ROUGE 44.15	LR: 0.00049000	
Steps: 11550	Recognition Loss: 154.17905	Translation Loss: 28407.79297	PPL: 37.15665	Eval Metric: bleu	WER 29.54	(DEL: 15.32,	INS: 2.78,	SUB: 11.45)	BLEU-4 19.39	(BLEU-1: 45.44,	BLEU-2: 31.67,	BLEU-3: 24.08,	BLEU-4: 19.39)	CHRF 42.94	ROUGE 44.98	LR: 0.00049000	
Steps: 11700	Recognition Loss: 152.96925	Translation Loss: 28068.07617	PPL: 35.58452	Eval Metric: bleu	WER 29.68	(DEL: 15.27,	INS: 2.83,	SUB: 11.58)	BLEU-4 18.70	(BLEU-1: 44.35,	BLEU-2: 30.79,	BLEU-3: 23.28,	BLEU-4: 18.70)	CHRF 42.50	ROUGE 43.97	LR: 0.00034300	
Steps: 11850	Recognition Loss: 154.83614	Translation Loss: 27982.25000	PPL: 35.19798	Eval Metric: bleu	WER 29.01	(DEL: 14.14,	INS: 3.10,	SUB: 11.77)	BLEU-4 19.80	(BLEU-1: 45.11,	BLEU-2: 31.78,	BLEU-3: 24.35,	BLEU-4: 19.80)	CHRF 42.72	ROUGE 45.63	LR: 0.00034300	*
Steps: 12000	Recognition Loss: 159.02618	Translation Loss: 28102.82227	PPL: 35.74222	Eval Metric: bleu	WER 28.42	(DEL: 13.93,	INS: 2.88,	SUB: 11.61)	BLEU-4 19.95	(BLEU-1: 46.26,	BLEU-2: 32.38,	BLEU-3: 24.68,	BLEU-4: 19.95)	CHRF 43.19	ROUGE 45.40	LR: 0.00034300	*
Steps: 12150	Recognition Loss: 158.67632	Translation Loss: 28118.11914	PPL: 35.81186	Eval Metric: bleu	WER 29.20	(DEL: 13.80,	INS: 3.60,	SUB: 11.80)	BLEU-4 19.62	(BLEU-1: 44.44,	BLEU-2: 31.45,	BLEU-3: 24.15,	BLEU-4: 19.62)	CHRF 42.33	ROUGE 44.65	LR: 0.00034300	
Steps: 12300	Recognition Loss: 158.00031	Translation Loss: 28164.43945	PPL: 36.02359	Eval Metric: bleu	WER 28.80	(DEL: 13.77,	INS: 3.04,	SUB: 11.98)	BLEU-4 19.98	(BLEU-1: 45.80,	BLEU-2: 32.41,	BLEU-3: 24.79,	BLEU-4: 19.98)	CHRF 43.78	ROUGE 45.34	LR: 0.00034300	*
Steps: 12450	Recognition Loss: 157.12167	Translation Loss: 28297.42188	PPL: 36.63841	Eval Metric: bleu	WER 28.74	(DEL: 12.92,	INS: 3.34,	SUB: 12.49)	BLEU-4 19.36	(BLEU-1: 45.19,	BLEU-2: 31.79,	BLEU-3: 24.12,	BLEU-4: 19.36)	CHRF 42.70	ROUGE 45.06	LR: 0.00034300	
Steps: 12600	Recognition Loss: 158.34076	Translation Loss: 28411.58789	PPL: 37.17460	Eval Metric: bleu	WER 28.64	(DEL: 13.82,	INS: 3.04,	SUB: 11.77)	BLEU-4 19.27	(BLEU-1: 44.30,	BLEU-2: 31.26,	BLEU-3: 23.81,	BLEU-4: 19.27)	CHRF 42.66	ROUGE 44.93	LR: 0.00034300	
Steps: 12750	Recognition Loss: 158.62108	Translation Loss: 28221.39648	PPL: 36.28565	Eval Metric: bleu	WER 28.45	(DEL: 13.10,	INS: 3.31,	SUB: 12.04)	BLEU-4 19.81	(BLEU-1: 45.34,	BLEU-2: 32.03,	BLEU-3: 24.51,	BLEU-4: 19.81)	CHRF 43.77	ROUGE 44.89	LR: 0.00034300	
Steps: 12900	Recognition Loss: 165.31081	Translation Loss: 28633.34375	PPL: 38.23863	Eval Metric: bleu	WER 28.96	(DEL: 14.30,	INS: 2.83,	SUB: 11.82)	BLEU-4 18.96	(BLEU-1: 45.17,	BLEU-2: 31.35,	BLEU-3: 23.71,	BLEU-4: 18.96)	CHRF 42.92	ROUGE 44.77	LR: 0.00034300	
Steps: 13050	Recognition Loss: 157.99837	Translation Loss: 28405.67969	PPL: 37.14666	Eval Metric: bleu	WER 28.64	(DEL: 13.37,	INS: 2.91,	SUB: 12.36)	BLEU-4 19.01	(BLEU-1: 44.76,	BLEU-2: 31.25,	BLEU-3: 23.70,	BLEU-4: 19.01)	CHRF 42.72	ROUGE 44.65	LR: 0.00034300	
Steps: 13200	Recognition Loss: 161.41087	Translation Loss: 28302.86719	PPL: 36.66381	Eval Metric: bleu	WER 28.66	(DEL: 13.58,	INS: 3.15,	SUB: 11.93)	BLEU-4 19.00	(BLEU-1: 44.36,	BLEU-2: 31.20,	BLEU-3: 23.68,	BLEU-4: 19.00)	CHRF 42.75	ROUGE 43.99	LR: 0.00034300	
Steps: 13350	Recognition Loss: 158.40340	Translation Loss: 28592.41016	PPL: 38.03996	Eval Metric: bleu	WER 28.69	(DEL: 14.41,	INS: 2.54,	SUB: 11.74)	BLEU-4 19.30	(BLEU-1: 45.49,	BLEU-2: 31.95,	BLEU-3: 24.16,	BLEU-4: 19.30)	CHRF 42.86	ROUGE 44.95	LR: 0.00034300	
Steps: 13500	Recognition Loss: 161.41461	Translation Loss: 28302.58789	PPL: 36.66251	Eval Metric: bleu	WER 29.28	(DEL: 13.77,	INS: 3.12,	SUB: 12.38)	BLEU-4 19.52	(BLEU-1: 45.34,	BLEU-2: 31.71,	BLEU-3: 24.15,	BLEU-4: 19.52)	CHRF 43.49	ROUGE 44.65	LR: 0.00034300	
Steps: 13650	Recognition Loss: 160.90604	Translation Loss: 28698.77148	PPL: 38.55833	Eval Metric: bleu	WER 28.98	(DEL: 14.41,	INS: 2.94,	SUB: 11.64)	BLEU-4 19.12	(BLEU-1: 44.70,	BLEU-2: 31.16,	BLEU-3: 23.71,	BLEU-4: 19.12)	CHRF 43.00	ROUGE 44.27	LR: 0.00024010	
Steps: 13800	Recognition Loss: 161.09192	Translation Loss: 28391.33594	PPL: 37.07892	Eval Metric: bleu	WER 27.81	(DEL: 12.49,	INS: 3.12,	SUB: 12.20)	BLEU-4 19.61	(BLEU-1: 45.15,	BLEU-2: 31.95,	BLEU-3: 24.41,	BLEU-4: 19.61)	CHRF 42.77	ROUGE 44.86	LR: 0.00024010	
Steps: 13950	Recognition Loss: 164.54260	Translation Loss: 28137.57031	PPL: 35.90062	Eval Metric: bleu	WER 28.02	(DEL: 12.22,	INS: 3.58,	SUB: 12.22)	BLEU-4 20.08	(BLEU-1: 46.30,	BLEU-2: 32.72,	BLEU-3: 24.95,	BLEU-4: 20.08)	CHRF 43.93	ROUGE 46.08	LR: 0.00024010	*
Steps: 14100	Recognition Loss: 163.42215	Translation Loss: 28272.39648	PPL: 36.52191	Eval Metric: bleu	WER 28.02	(DEL: 12.17,	INS: 3.74,	SUB: 12.12)	BLEU-4 20.08	(BLEU-1: 45.24,	BLEU-2: 32.14,	BLEU-3: 24.73,	BLEU-4: 20.08)	CHRF 43.16	ROUGE 45.31	LR: 0.00024010	
Steps: 14250	Recognition Loss: 162.20419	Translation Loss: 28274.38086	PPL: 36.53114	Eval Metric: bleu	WER 28.18	(DEL: 12.94,	INS: 3.58,	SUB: 11.66)	BLEU-4 20.05	(BLEU-1: 45.59,	BLEU-2: 32.23,	BLEU-3: 24.77,	BLEU-4: 20.05)	CHRF 43.26	ROUGE 45.83	LR: 0.00024010	
Steps: 14400	Recognition Loss: 158.84308	Translation Loss: 28140.96680	PPL: 35.91614	Eval Metric: bleu	WER 27.86	(DEL: 12.89,	INS: 3.15,	SUB: 11.82)	BLEU-4 20.86	(BLEU-1: 47.13,	BLEU-2: 33.70,	BLEU-3: 25.85,	BLEU-4: 20.86)	CHRF 44.81	ROUGE 46.42	LR: 0.00024010	*
Steps: 14550	Recognition Loss: 161.47401	Translation Loss: 28314.09570	PPL: 36.71624	Eval Metric: bleu	WER 27.78	(DEL: 12.60,	INS: 3.26,	SUB: 11.93)	BLEU-4 19.70	(BLEU-1: 45.44,	BLEU-2: 32.01,	BLEU-3: 24.38,	BLEU-4: 19.70)	CHRF 43.27	ROUGE 45.40	LR: 0.00024010	
Steps: 14700	Recognition Loss: 162.88226	Translation Loss: 28586.41016	PPL: 38.01092	Eval Metric: bleu	WER 28.77	(DEL: 13.58,	INS: 3.44,	SUB: 11.74)	BLEU-4 19.18	(BLEU-1: 44.55,	BLEU-2: 31.22,	BLEU-3: 23.77,	BLEU-4: 19.18)	CHRF 42.61	ROUGE 44.62	LR: 0.00024010	
Steps: 14850	Recognition Loss: 162.50725	Translation Loss: 28405.40234	PPL: 37.14535	Eval Metric: bleu	WER 28.48	(DEL: 13.61,	INS: 3.18,	SUB: 11.69)	BLEU-4 19.97	(BLEU-1: 46.39,	BLEU-2: 32.87,	BLEU-3: 24.95,	BLEU-4: 19.97)	CHRF 43.87	ROUGE 45.90	LR: 0.00024010	
Steps: 15000	Recognition Loss: 164.42789	Translation Loss: 28147.41016	PPL: 35.94560	Eval Metric: bleu	WER 28.37	(DEL: 13.80,	INS: 3.04,	SUB: 11.53)	BLEU-4 19.21	(BLEU-1: 45.63,	BLEU-2: 31.83,	BLEU-3: 24.04,	BLEU-4: 19.21)	CHRF 43.06	ROUGE 45.01	LR: 0.00024010	
Steps: 15150	Recognition Loss: 166.22705	Translation Loss: 28632.98828	PPL: 38.23690	Eval Metric: bleu	WER 28.26	(DEL: 12.12,	INS: 3.55,	SUB: 12.60)	BLEU-4 19.32	(BLEU-1: 45.24,	BLEU-2: 31.67,	BLEU-3: 24.09,	BLEU-4: 19.32)	CHRF 43.02	ROUGE 45.06	LR: 0.00024010	
Steps: 15300	Recognition Loss: 168.51419	Translation Loss: 28355.82422	PPL: 36.91173	Eval Metric: bleu	WER 28.42	(DEL: 12.68,	INS: 3.02,	SUB: 12.73)	BLEU-4 19.68	(BLEU-1: 45.66,	BLEU-2: 32.14,	BLEU-3: 24.45,	BLEU-4: 19.68)	CHRF 43.63	ROUGE 45.48	LR: 0.00024010	
Steps: 15450	Recognition Loss: 166.70586	Translation Loss: 28727.15234	PPL: 38.69785	Eval Metric: bleu	WER 28.93	(DEL: 12.25,	INS: 3.74,	SUB: 12.94)	BLEU-4 20.05	(BLEU-1: 45.58,	BLEU-2: 32.36,	BLEU-3: 24.78,	BLEU-4: 20.05)	CHRF 43.12	ROUGE 45.05	LR: 0.00024010	
Steps: 15600	Recognition Loss: 163.09958	Translation Loss: 28641.97461	PPL: 38.28065	Eval Metric: bleu	WER 28.00	(DEL: 11.93,	INS: 3.66,	SUB: 12.41)	BLEU-4 19.40	(BLEU-1: 45.45,	BLEU-2: 31.88,	BLEU-3: 24.20,	BLEU-4: 19.40)	CHRF 42.90	ROUGE 44.74	LR: 0.00024010	
Steps: 15750	Recognition Loss: 166.60866	Translation Loss: 28462.37891	PPL: 37.41566	Eval Metric: bleu	WER 29.12	(DEL: 13.85,	INS: 3.39,	SUB: 11.88)	BLEU-4 18.85	(BLEU-1: 44.65,	BLEU-2: 31.14,	BLEU-3: 23.53,	BLEU-4: 18.85)	CHRF 43.02	ROUGE 44.20	LR: 0.00016807	
Steps: 15900	Recognition Loss: 166.74226	Translation Loss: 28326.47852	PPL: 36.77414	Eval Metric: bleu	WER 28.64	(DEL: 13.10,	INS: 3.44,	SUB: 12.09)	BLEU-4 19.50	(BLEU-1: 45.31,	BLEU-2: 31.86,	BLEU-3: 24.25,	BLEU-4: 19.50)	CHRF 43.07	ROUGE 44.89	LR: 0.00016807	
Steps: 16050	Recognition Loss: 164.67439	Translation Loss: 28250.49023	PPL: 36.42024	Eval Metric: bleu	WER 28.64	(DEL: 13.18,	INS: 3.63,	SUB: 11.82)	BLEU-4 20.20	(BLEU-1: 46.24,	BLEU-2: 32.78,	BLEU-3: 25.04,	BLEU-4: 20.20)	CHRF 43.63	ROUGE 45.63	LR: 0.00016807	
Steps: 16200	Recognition Loss: 169.14854	Translation Loss: 28267.05273	PPL: 36.49708	Eval Metric: bleu	WER 28.29	(DEL: 12.04,	INS: 3.82,	SUB: 12.44)	BLEU-4 20.51	(BLEU-1: 45.92,	BLEU-2: 32.81,	BLEU-3: 25.27,	BLEU-4: 20.51)	CHRF 43.50	ROUGE 45.75	LR: 0.00016807	
Steps: 16350	Recognition Loss: 165.56540	Translation Loss: 28401.76758	PPL: 37.12817	Eval Metric: bleu	WER 29.04	(DEL: 13.26,	INS: 3.71,	SUB: 12.06)	BLEU-4 19.49	(BLEU-1: 44.23,	BLEU-2: 31.55,	BLEU-3: 24.14,	BLEU-4: 19.49)	CHRF 42.68	ROUGE 44.95	LR: 0.00016807	
Steps: 16500	Recognition Loss: 168.39900	Translation Loss: 28196.43164	PPL: 36.17054	Eval Metric: bleu	WER 28.58	(DEL: 13.29,	INS: 3.20,	SUB: 12.09)	BLEU-4 20.08	(BLEU-1: 45.51,	BLEU-2: 32.52,	BLEU-3: 24.88,	BLEU-4: 20.08)	CHRF 43.81	ROUGE 45.64	LR: 0.00016807	
Steps: 16650	Recognition Loss: 166.44832	Translation Loss: 28199.17773	PPL: 36.18319	Eval Metric: bleu	WER 27.94	(DEL: 12.25,	INS: 3.74,	SUB: 11.96)	BLEU-4 19.58	(BLEU-1: 46.16,	BLEU-2: 32.44,	BLEU-3: 24.53,	BLEU-4: 19.58)	CHRF 43.59	ROUGE 45.69	LR: 0.00016807	
Steps: 16800	Recognition Loss: 170.30643	Translation Loss: 28218.83008	PPL: 36.27380	Eval Metric: bleu	WER 28.34	(DEL: 11.82,	INS: 3.58,	SUB: 12.94)	BLEU-4 19.45	(BLEU-1: 45.82,	BLEU-2: 31.94,	BLEU-3: 24.20,	BLEU-4: 19.45)	CHRF 43.26	ROUGE 44.93	LR: 0.00016807	
Steps: 16950	Recognition Loss: 167.22726	Translation Loss: 28457.18359	PPL: 37.39093	Eval Metric: bleu	WER 28.66	(DEL: 12.65,	INS: 3.50,	SUB: 12.52)	BLEU-4 19.69	(BLEU-1: 46.17,	BLEU-2: 32.33,	BLEU-3: 24.54,	BLEU-4: 19.69)	CHRF 43.48	ROUGE 45.73	LR: 0.00016807	
Steps: 17100	Recognition Loss: 167.33005	Translation Loss: 28464.86719	PPL: 37.42751	Eval Metric: bleu	WER 28.58	(DEL: 12.62,	INS: 3.60,	SUB: 12.36)	BLEU-4 19.84	(BLEU-1: 45.55,	BLEU-2: 32.29,	BLEU-3: 24.67,	BLEU-4: 19.84)	CHRF 43.66	ROUGE 45.31	LR: 0.00011765	
